…
#### Czech warblers

``` r
## Show descriptions of warbler samples from Czech Republic
czech_warblers <- gets_sample_descriptions(your_api_key, taxon_common = "warbler", country = "Czech Republic")
```

``` r
czech_warblers
#> # A tibble: 38 x 13
#>    asid  tissue tissue_id amount taxon_common taxon_scientific taxon_id
#>    <chr> <chr>      <int>  <int> <chr>        <chr>               <int>
#>  1 AS01~ feath~         5     15 Marsh Warbl~ Acrocephalus pa~    23941
#>  2 AS01~ feath~         5      5 Marsh Warbl~ Acrocephalus pa~    23941
#>  3 AS01~ feath~         5      3 Marsh Warbl~ Acrocephalus pa~    23941
#>  4 AS01~ feath~         5      6 Marsh Warbl~ Acrocephalus pa~    23941
#>  5 AS00~ feath~         5      1 Eurasian Re~ Acrocephalus sc~    23942
#>  6 AS00~ feath~         5      3 Eurasian Re~ Acrocephalus sc~    23942
#>  7 AS00~ feath~         5      1 Eurasian Re~ Acrocephalus sc~    23942
#>  8 AS00~ feath~         5      9 Eurasian Re~ Acrocephalus sc~    23942
#>  9 AS00~ feath~         5      2 Eurasian Re~ Acrocephalus sc~    23942
#> 10 AS00~ feath~         5      4 Eurasian Re~ Acrocephalus sc~    23942
#> # ... with 28 more rows, and 6 more variables: longitude <dbl>, latitude <dbl>,
#> #   country <chr>, country_id <int>, date <chr>, end_date <chr>
```
